%YAML 1.1
%TAG !u! tag:unity3d.com,2011:
--- !u!114 &11400000
MonoBehaviour:
  m_ObjectHideFlags: 0
  m_PrefabParentObject: {fileID: 0}
  m_PrefabInternal: {fileID: 0}
  m_GameObject: {fileID: 0}
  m_Enabled: 1
  m_EditorHideFlags: 0
  m_Script: {fileID: 11500000, guid: 0ad1d9cce85384e4b9aab769d36c1352, type: 3}
  m_Name: NPC_Hoe
  m_EditorClassIdentifier: 
  GripTransform: {fileID: 4471291709172308, guid: 8af4a343beb17b7449f2425c5a5f299b,
    type: 2}
  WeaponPrefab: {fileID: 1274797246840802, guid: cc0dbe33ee8adbe4eb124e2d95d37fe4,
    type: 2}
  WeaponAnimation: {fileID: 7400000, guid: 16b4a0031272510489ca40cdfd99c114, type: 3}
  attackSpeed: 0
  attackDelay: 0
  maxAttackRange: 0
  additionalDamage: 0
