%YAML 1.1
%TAG !u! tag:unity3d.com,2011:
--- !u!114 &11400000
MonoBehaviour:
  m_ObjectHideFlags: 0
  m_PrefabParentObject: {fileID: 0}
  m_PrefabInternal: {fileID: 0}
  m_GameObject: {fileID: 0}
  m_Enabled: 1
  m_EditorHideFlags: 0
  m_Script: {fileID: 11500000, guid: bd578d4535c868042bf0a9c6e313cccb, type: 3}
  m_Name: Buff Sounds
  m_EditorClassIdentifier: 
  audioClips:
  - {fileID: 8300000, guid: 7225464f0f7172444be438bbd0270221, type: 3}
